4 Post DTU Analysis – TAPIR: Transcript analysis pipelines in R
…
Extract test results

sig_res <- rowData(se)[["fitDTUResult_WT_vs_KD"]] |>
  tibble::as_tibble() |>
  dplyr::bind_cols(as.data.frame(rowData(se)[,1:4])) |>
  dplyr::filter(empirical_FDR < .1) |>
  dplyr::select(gene_id, isoform_id, symbol, estimates, empirical_pval, empirical_FDR) |>
  dplyr::arrange(empirical_pval)

sig_res

# A tibble: 77 × 6
   gene_id            isoform_id   symbol estimates empirical_pval empirical_FDR
   <chr>              <chr>        <chr>      <dbl>          <dbl>         <dbl>
 1 ENSG00000196923.13 ENST0000035… PDLIM7      3.60     0.00000937       0.00959
 2 ENSG00000196923.13 ENST0000035… PDLIM7     -3.60     0.0000111        0.00959
 3 ENSG00000134285.10 ENST0000055… FKBP11      1.98     0.0000126        0.00959
 4 ENSG00000134285.10 ENST0000055… FKBP11     -1.98     0.0000149        0.00959
 5 ENSG00000198467.13 ENST0000037… TPM2        2.63     0.0000433        0.0195 
 6 ENSG00000138326.18 ENST0000037… RPS24       1.60     0.0000456        0.0195 
 7 ENSG00000138326.18 ENST0000036… RPS24      -1.28     0.0000640        0.0196 
 8 ENSG00000112305.14 ENST0000031… SMAP1       4.18     0.0000695        0.0196 
 9 ENSG00000115310.17 ENST0000031… RTN4        2.70     0.0000809        0.0196 
10 ENSG00000112305.14 ENST0000037… SMAP1      -4.18     0.0000811        0.0196 
# ℹ 67 more rows
…
Create ranges using sliding window of with 10 with 5 bp overlap

window_width <- 10
overlap <- 5
step <-  window_width - overlap 
n_windows <- ceiling((width_upstream - window_width) / step) + 1

# create GRanges with the defined window ranges
windows <- upstr_downreg_exons |> slide_ranges( width = window_width,  # GRanges
                                         step = step) # divide into windows
windows |> as_tibble()

# A tibble: 361 × 6
   seqnames     start       end width strand partition
   <fct>        <int>     <int> <int> <fct>      <int>
 1 chr1     154169384 154169393    10 -              1
 2 chr1     154169389 154169398    10 -              1
 3 chr1     154169394 154169403    10 -              1
 4 chr1     154169399 154169408    10 -              1
 5 chr1     154169404 154169413    10 -              1
 6 chr1     154169409 154169418    10 -              1
 7 chr1     154169414 154169423    10 -              1
 8 chr1     154169419 154169428    10 -              1
 9 chr1     154169424 154169433    10 -              1
10 chr1     154169429 154169438    10 -              1
# ℹ 351 more rows
…
Calculate the oligonucleotide frequency (A/C/G/U) per window

bp_counts <- oligonucleotideFrequency(seq_windows, 
                                      width = 1) #1-mer
windows_bp <- bp_counts / rowSums(bp_counts)
windows_bp |> as_tibble()

# A tibble: 361 × 4
       A     C     G     U
   <dbl> <dbl> <dbl> <dbl>
 1   0.1   0.4   0.3   0.2
 2   0     0.4   0.3   0.3
 3   0     0.2   0.3   0.5
 4   0     0.3   0.3   0.4
 5   0     0.5   0.1   0.4
 6   0.1   0.5   0     0.4
 7   0.1   0.5   0.1   0.3
 8   0.1   0.5   0.1   0.3
 9   0.1   0.5   0     0.4
10   0.3   0.2   0.1   0.4
# ℹ 351 more rows
…
