TAPIR: Transcript analysis pipelines in R - 3 Statistical testing
…
#saveRDS(se, file=here("data","glinos_saturn_dtu.rds"))

sig_res <- rowData(se)[["fitDTUResult_exp_vs_ctrl"]] |>
  tibble::as_tibble() |>
  dplyr::bind_cols(as.data.frame(rowData(se)[,1:4])) |>
  dplyr::filter(empirical_FDR < .1) |>
  dplyr::select(gene_id, isoform_id, symbol, estimates, empirical_pval, empirical_FDR) |>
  dplyr::arrange(empirical_pval)
#write.csv(sig_res, file=here("data","glinos_saturn_dtu.csv"), quote=FALSE, row.names=FALSE)
sig_res

# A tibble: 61 × 6
   gene_id            isoform_id                  symbol estimates empirical_pval empirical_FDR
   <chr>              <chr>                       <chr>      <dbl>          <dbl>         <dbl>
 1 ENSG00000196923.13 ENST00000355841.6           PDLIM7     -5.14    0.000000309       0.00304
 2 ENSG00000198467.13 ENST00000378292.7           TPM2       -2.93    0.00000324        0.0108 
 3 ENSG00000138674.16 ENSG00000138674.16-d16d19d1 SEC31A     -2.41    0.00000330        0.0108 
 4 ENSG00000196923.13 ENSG00000196923.13-00a9e7dd PDLIM7      4.92    0.00000854        0.0210 
 5 ENSG00000198467.13 ENSG00000198467.13-7a434697 TPM2        3.27    0.0000170         0.0252 
 6 ENSG00000161203.13 ENSG00000161203.13-29f67f36 AP2M1       1.51    0.0000172         0.0252 
 7 ENSG00000134285.10 ENST00000552878.5-1         FKBP11      1.98    0.0000179         0.0252 
 8 ENSG00000134285.10 ENST00000550765.5           FKBP11     -1.98    0.0000211         0.0259 
 9 ENSG00000167460.14 ENST00000300933.8           TPM4       -1.35    0.0000325         0.0304 
10 ENSG00000161203.13 ENST00000382456.7           AP2M1      -1.83    0.0000365         0.0304 
# ℹ 51 more rows
…
